CES2019 Phone Survey Falsely Predicts The Conservative Party Can Win the Election - Henry's website
…
In the following, we provide some of the data from the survey. By manipulating the data set, we construct several tables and graphs along with 4 findings. Later we look at some of the weaknesses and the further work we can work on.

Data

This is the raw data set from the ces2019_phone survey

## TO CITE THIS SURVEY FILE:
## 
## - Stephenson, Laura B; Harell, Allison; Rubenson, Daniel; Loewen, Peter John, 2020, '2019 Canadian Election Study - Phone Survey', https://doi.org/10.7910/DVN/8RHLG1, Harvard Dataverse, V1, UNF:6:eyR28qaoYlHj9qwPWZmmVQ== [fileUNF]
## 
## - Stephenson, Laura, Allison Harrel, Daniel Rubenson and Peter Loewen. Forthcoming. 'Measuring Preferences and Behaviour in the 2019 Canadian Election Study,' Canadian Journal of Political Science.
## 
## LINK: https://dataverse.harvard.edu/dataset.xhtml?persistentId=doi:10.7910/DVN/8RHLG1
## # A tibble: 4,021 x 2
##              q3                                                              q11
##       <dbl+lbl>                                                        <dbl+lbl>
##  1 1 [(1) Male] -9 [(-9) Don't know / Undecided]                                
##  2 1 [(1) Male] -9 [(-9) Don't know / Undecided]                                
##  3 1 [(1) Male]  1 [(1) Liberal (Grits)]                                        
##  4 1 [(1) Male]  4 [(4) Bloc Québécois (BQ, PQ, Bloc, Parti Québécois)]         
##  5 1 [(1) Male]  3 [(3) NDP (New Democratic Party, New Democrats, NDPers)]      
##  6 1 [(1) Male]  4 [(4) Bloc Québécois (BQ, PQ, Bloc, Parti Québécois)]         
##  7 1 [(1) Male]  5 [(5) Green Party (Greens)]                                   
##  8 1 [(1) Male]  4 [(4) Bloc Québécois (BQ, PQ, Bloc, Parti Québécois)]         
##  9 1 [(1) Male]  2 [(2) Conservatives (Tory, PCs, Conservative Party of Canada)]
## 10 1 [(1) Male] -9 [(-9) Don't know / Undecided]                                
## # … with 4,011 more rows
…
